%YAML 1.1
%TAG !u! tag:unity3d.com,2011:
--- !u!74 &7400000
AnimationClip:
  m_ObjectHideFlags: 0
  m_PrefabParentObject: {fileID: 0}
  m_PrefabInternal: {fileID: 0}
  m_Name: "BorderV1"
  serializedVersion: 6
  m_Legacy: 0
  m_Compressed: 0
  m_UseHighQualityCurve: 1
  m_RotationCurves:
  m_CompressedRotationCurves: []
  m_EulerCurves:
  m_PositionCurves:
  m_ScaleCurves:
  m_FloatCurves:
  - curve:
      serializedVersion: 2
      m_Curve:
      - serializedVersion: 2
        time: 0
        value: 0.8549239
        inSlope: 0
        outSlope: 0
        tangentMode: 0
      - serializedVersion: 2
        time: 1
        value: 0
        inSlope: 0
        outSlope: 0
        tangentMode: 0
      - serializedVersion: 2
        time: 3
        value: 0.8549239
        inSlope: 0
        outSlope: 0
        tangentMode: 0
      m_PreInfinity: 2
      m_PostInfinity: 2
      m_RotationOrder: 4
    attribute: material._Color.g
    path: 
    classID: 212
    script: {fileID: 0}
  - curve:
      serializedVersion: 2
      m_Curve:
      - serializedVersion: 2
        time: 0
        value: 0
        inSlope: 0
        outSlope: 0
        tangentMode: 0
      - serializedVersion: 2
        time: 1
        value: 0.3208256
        inSlope: 0
        outSlope: 0
        tangentMode: 0
      - serializedVersion: 2
        time: 3
        value: 0
        inSlope: 0
        outSlope: 0
        tangentMode: 0
      m_PreInfinity: 2
      m_PostInfinity: 2
      m_RotationOrder: 4
    attribute: material._Color.b
    path: 
    classID: 212
    script: {fileID: 0}
  - curve:
      serializedVersion: 2
      m_Curve:
      - serializedVersion: 2
        time: 0
        value: 1
        inSlope: 0
        outSlope: 0
        tangentMode: 0
      - serializedVersion: 2
        time: 2
        value: 0.4179041
        inSlope: 0
        outSlope: 0
        tangentMode: 0
      - serializedVersion: 2
        time: 4
        value: 1
        inSlope: 0
        outSlope: 0
        tangentMode: 0
      m_PreInfinity: 2
      m_PostInfinity: 2
      m_RotationOrder: 4
    attribute: unknown_1576685612
    path: 
    classID: 212
    script: {fileID: 0}
  - curve:
      serializedVersion: 2
      m_Curve:
      - serializedVersion: 2
        time: 0
        value: 0.02382612
        inSlope: 0
        outSlope: 0
        tangentMode: 0
      - serializedVersion: 2
        time: 2
        value: 0.9406975
        inSlope: 0
        outSlope: 0
        tangentMode: 0
      - serializedVersion: 2
        time: 4
        value: 0.02382612
        inSlope: 0
        outSlope: 0
        tangentMode: 0
      m_PreInfinity: 2
      m_PostInfinity: 2
      m_RotationOrder: 4
    attribute: unknown_1845121068
    path: 
    classID: 212
    script: {fileID: 0}
  - curve:
      serializedVersion: 2
      m_Curve:
      - serializedVersion: 2
        time: 0
        value: 1
        inSlope: 0
        outSlope: 0
        tangentMode: 0
      - serializedVersion: 2
        time: 4
        value: 1
        inSlope: 0
        outSlope: 0
        tangentMode: 0
      m_PreInfinity: 2
      m_PostInfinity: 2
      m_RotationOrder: 4
    attribute: material._Color.r
    path: 
    classID: 212
    script: {fileID: 0}
  - curve:
      serializedVersion: 2
      m_Curve:
      - serializedVersion: 2
        time: 0
        value: 1
        inSlope: 0
        outSlope: 0
        tangentMode: 0
      - serializedVersion: 2
        time: 4
        value: 1
        inSlope: 0
        outSlope: 0
        tangentMode: 0
      m_PreInfinity: 2
      m_PostInfinity: 2
      m_RotationOrder: 4
    attribute: material._Color.a
    path: 
    classID: 212
    script: {fileID: 0}
  - curve:
      serializedVersion: 2
      m_Curve:
      - serializedVersion: 2
        time: 0
        value: 0
        inSlope: 0
        outSlope: 0
        tangentMode: 0
      - serializedVersion: 2
        time: 4
        value: 0
        inSlope: 0
        outSlope: 0
        tangentMode: 0
      m_PreInfinity: 2
      m_PostInfinity: 2
      m_RotationOrder: 4
    attribute: unknown_1308250156
    path: 
    classID: 212
    script: {fileID: 0}
  - curve:
      serializedVersion: 2
      m_Curve:
      - serializedVersion: 2
        time: 0
        value: 1
        inSlope: 0
        outSlope: 0
        tangentMode: 0
      - serializedVersion: 2
        time: 4
        value: 1
        inSlope: 0
        outSlope: 0
        tangentMode: 0
      m_PreInfinity: 2
      m_PostInfinity: 2
      m_RotationOrder: 4
    attribute: unknown_2113556524
    path: 
    classID: 212
    script: {fileID: 0}
  m_PPtrCurves:
  m_SampleRate: 10
  m_WrapMode: 0
  m_Bounds:
    m_Center: {x: 0, y: 0, z: 0}
    m_Extent: {x: 0, y: 0, z: 0}
  m_MuscleClipSize: 2984
  m_MuscleClip:
    serializedVersion: 3
    m_DeltaPose:
      m_RootX:
        t: {x: 0, y: 0, z: 0}
        q: {x: 0, y: 0, z: 0, w: 1}
        s: {x: 1, y: 1, z: 1}
      m_LookAtPosition: {x: 0, y: 0, z: 0}
      m_LookAtWeight: {x: 0, y: 0, z: 0, w: 0}
      m_GoalArray:
      - m_X:
          t: {x: 0, y: 0, z: 0}
          q: {x: 0, y: 0, z: 0, w: 1}
          s: {x: 1, y: 1, z: 1}
          m_Weight: 
          m_WeightR: 0
          m_HintT: {x: 0, y: 0, z: 0}
          m_HintWeightT: 0
      - m_X:
          t: {x: 0, y: 0, z: 0}
          q: {x: 0, y: 0, z: 0, w: 1}
          s: {x: 1, y: 1, z: 1}
          m_Weight: 
          m_WeightR: 0
          m_HintT: {x: 0, y: 0, z: 0}
          m_HintWeightT: 0
      - m_X:
          t: {x: 0, y: 0, z: 0}
          q: {x: 0, y: 0, z: 0, w: 1}
          s: {x: 1, y: 1, z: 1}
          m_Weight: 
          m_WeightR: 0
          m_HintT: {x: 0, y: 0, z: 0}
          m_HintWeightT: 0
      - m_X:
          t: {x: 0, y: 0, z: 0}
          q: {x: 0, y: 0, z: 0, w: 1}
          s: {x: 1, y: 1, z: 1}
          m_Weight: 
          m_WeightR: 0
          m_HintT: {x: 0, y: 0, z: 0}
          m_HintWeightT: 0
      m_LeftHandPose:
        m_GrabX:
          t: {x: 0, y: 0, z: 0}
          q: {x: 0, y: 0, z: 0, w: 1}
          s: {x: 1, y: 1, z: 1}
        m_DoFArray:
        - 0
        - 0
        - 0
        - 0
        - 0
        - 0
        - 0
        - 0
        - 0
        - 0
        - 0
        - 0
        - 0
        - 0
        - 0
        - 0
        - 0
        - 0
        - 0
        - 0
        m_Override: 0
        m_CloseOpen: 0
        m_InOut: 0
        m_Grab: 0
      m_RightHandPose:
        m_GrabX:
          t: {x: 0, y: 0, z: 0}
          q: {x: 0, y: 0, z: 0, w: 1}
          s: {x: 1, y: 1, z: 1}
        m_DoFArray:
        - 0
        - 0
        - 0
        - 0
        - 0
        - 0
        - 0
        - 0
        - 0
        - 0
        - 0
        - 0
        - 0
        - 0
        - 0
        - 0
        - 0
        - 0
        - 0
        - 0
        m_Override: 0
        m_CloseOpen: 0
        m_InOut: 0
        m_Grab: 0
      m_DoFArray:
        - 0
        - 0
        - 0
        - 0
        - 0
        - 0
        - 0
        - 0
        - 0
        - 0
        - 0
        - 0
        - 0
        - 0
        - 0
        - 0
        - 0
        - 0
        - 0
        - 0
        - 0
        - 0
        - 0
        - 0
        - 0
        - 0
        - 0
        - 0
        - 0
        - 0
        - 0
        - 0
        - 0
        - 0
        - 0
        - 0
        - 0
        - 0
        - 0
        - 0
        - 0
        - 0
        - 0
        - 0
        - 0
        - 0
        - 0
        - 0
        - 0
        - 0
        - 0
        - 0
        - 0
        - 0
        - 0
      m_TDoFArray:
      - x: 0
        y: 0
        z: 0
      - x: 0
        y: 0
        z: 0
      - x: 0
        y: 0
        z: 0
      - x: 0
        y: 0
        z: 0
      - x: 0
        y: 0
        z: 0
      - x: 0
        y: 0
        z: 0
      - x: 0
        y: 0
        z: 0
      - x: 0
        y: 0
        z: 0
      - x: 0
        y: 0
        z: 0
      - x: 0
        y: 0
        z: 0
      - x: 0
        y: 0
        z: 0
      - x: 0
        y: 0
        z: 0
      - x: 0
        y: 0
        z: 0
      - x: 0
        y: 0
        z: 0
      - x: 0
        y: 0
        z: 0
      - x: 0
        y: 0
        z: 0
      - x: 0
        y: 0
        z: 0
      - x: 0
        y: 0
        z: 0
      - x: 0
        y: 0
        z: 0
      - x: 0
        y: 0
        z: 0
      - x: 0
        y: 0
        z: 0
    m_StartX:
      t: {x: 0, y: 0, z: 0}
      q: {x: 0, y: 0, z: 0, w: 1}
      s: {x: 1, y: 1, z: 1}
    m_StopX:
      t: {x: 0, y: 0, z: 0}
      q: {x: 0, y: 0, z: 0, w: 1}
      s: {x: 1, y: 1, z: 1}
    m_LeftFootStartX:
      t: {x: 0, y: 0, z: 0}
      q: {x: 0, y: 0, z: 0, w: 1}
      s: {x: 1, y: 1, z: 1}
    m_RightFootStartX:
      t: {x: 0, y: 0, z: 0}
      q: {x: 0, y: 0, z: 0, w: 1}
      s: {x: 1, y: 1, z: 1}
    m_AverageSpeed: {x: 0, y: 0, z: 0}
  m_ClipBindingConstant:
    genericBindings:
    - serializedVersion: 2
      path: 0
      attribute: 1571785585
      script: {fileID: 0}
      typeID: 212
      customType: 22
      isPPtrCurve: 0
    - serializedVersion: 2
      path: 0
      attribute: 1840221041
      script: {fileID: 0}
      typeID: 212
      customType: 22
      isPPtrCurve: 0
    - serializedVersion: 2
      path: 0
      attribute: 1576685612
      script: {fileID: 0}
      typeID: 212
      customType: 22
      isPPtrCurve: 0
    - serializedVersion: 2
      path: 0
      attribute: 1845121068
      script: {fileID: 0}
      typeID: 212
      customType: 22
      isPPtrCurve: 0
    - serializedVersion: 2
      path: 0
      attribute: 1303350129
      script: {fileID: 0}
      typeID: 212
      customType: 22
      isPPtrCurve: 0
    - serializedVersion: 2
      path: 0
      attribute: 2108656497
      script: {fileID: 0}
      typeID: 212
      customType: 22
      isPPtrCurve: 0
    - serializedVersion: 2
      path: 0
      attribute: 1308250156
      script: {fileID: 0}
      typeID: 212
      customType: 22
      isPPtrCurve: 0
    - serializedVersion: 2
      path: 0
      attribute: 2113556524
      script: {fileID: 0}
      typeID: 212
      customType: 22
      isPPtrCurve: 0
    pptrCurveMapping:
  m_AnimationClipSettings:
    serializedVersion: 2
    m_AdditiveReferencePoseClip: {fileID: 0}
    m_AdditiveReferencePoseTime: 
    m_StartTime: 0
    m_StopTime: 4
    m_OrientationOffsetY: 0
    m_Level: 0
    m_CycleOffset: 0
    m_HasAdditiveReferencePose: 
    m_LoopTime: 1
    m_LoopBlend: 0
    m_LoopBlendOrientation: 0
    m_LoopBlendPositionY: 0
    m_LoopBlendPositionXZ: 0
    m_KeepOriginalOrientation: 0
    m_KeepOriginalPositionY: 1
    m_KeepOriginalPositionXZ: 0
    m_HeightFromFeet: 0
    m_Mirror: 0
    m_HasGenericRootTransform: 0
    m_HasMotionFloatCurves: 0
    m_GenerateMotionCurves: 0
  m_EditorCurves:
  - curve:
      serializedVersion: 2
      m_Curve:
      - serializedVersion: 2
        time: 0
        value: 0.8549239
        inSlope: 0
        outSlope: 0
        tangentMode: 0
      - serializedVersion: 2
        time: 1
        value: 0
        inSlope: 0
        outSlope: 0
        tangentMode: 0
      - serializedVersion: 2
        time: 3
        value: 0.8549239
        inSlope: 0
        outSlope: 0
        tangentMode: 0
      m_PreInfinity: 2
      m_PostInfinity: 2
      m_RotationOrder: 4
    attribute: material._Color.g
    path: 
    classID: 212
    script: {fileID: 0}
  - curve:
      serializedVersion: 2
      m_Curve:
      - serializedVersion: 2
        time: 0
        value: 0
        inSlope: 0
        outSlope: 0
        tangentMode: 0
      - serializedVersion: 2
        time: 1
        value: 0.3208256
        inSlope: 0
        outSlope: 0
        tangentMode: 0
      - serializedVersion: 2
        time: 3
        value: 0
        inSlope: 0
        outSlope: 0
        tangentMode: 0
      m_PreInfinity: 2
      m_PostInfinity: 2
      m_RotationOrder: 4
    attribute: material._Color.b
    path: 
    classID: 212
    script: {fileID: 0}
  - curve:
      serializedVersion: 2
      m_Curve:
      - serializedVersion: 2
        time: 0
        value: 1
        inSlope: 0
        outSlope: 0
        tangentMode: 0
      - serializedVersion: 2
        time: 2
        value: 0.4179041
        inSlope: 0
        outSlope: 0
        tangentMode: 0
      - serializedVersion: 2
        time: 4
        value: 1
        inSlope: 0
        outSlope: 0
        tangentMode: 0
      m_PreInfinity: 2
      m_PostInfinity: 2
      m_RotationOrder: 4
    attribute: unknown_1576685612
    path: 
    classID: 212
    script: {fileID: 0}
  - curve:
      serializedVersion: 2
      m_Curve:
      - serializedVersion: 2
        time: 0
        value: 0.02382612
        inSlope: 0
        outSlope: 0
        tangentMode: 0
      - serializedVersion: 2
        time: 2
        value: 0.9406975
        inSlope: 0
        outSlope: 0
        tangentMode: 0
      - serializedVersion: 2
        time: 4
        value: 0.02382612
        inSlope: 0
        outSlope: 0
        tangentMode: 0
      m_PreInfinity: 2
      m_PostInfinity: 2
      m_RotationOrder: 4
    attribute: unknown_1845121068
    path: 
    classID: 212
    script: {fileID: 0}
  - curve:
      serializedVersion: 2
      m_Curve:
      - serializedVersion: 2
        time: 0
        value: 1
        inSlope: 0
        outSlope: 0
        tangentMode: 0
      - serializedVersion: 2
        time: 4
        value: 1
        inSlope: 0
        outSlope: 0
        tangentMode: 0
      m_PreInfinity: 2
      m_PostInfinity: 2
      m_RotationOrder: 4
    attribute: material._Color.r
    path: 
    classID: 212
    script: {fileID: 0}
  - curve:
      serializedVersion: 2
      m_Curve:
      - serializedVersion: 2
        time: 0
        value: 1
        inSlope: 0
        outSlope: 0
        tangentMode: 0
      - serializedVersion: 2
        time: 4
        value: 1
        inSlope: 0
        outSlope: 0
        tangentMode: 0
      m_PreInfinity: 2
      m_PostInfinity: 2
      m_RotationOrder: 4
    attribute: material._Color.a
    path: 
    classID: 212
    script: {fileID: 0}
  - curve:
      serializedVersion: 2
      m_Curve:
      - serializedVersion: 2
        time: 0
        value: 0
        inSlope: 0
        outSlope: 0
        tangentMode: 0
      - serializedVersion: 2
        time: 4
        value: 0
        inSlope: 0
        outSlope: 0
        tangentMode: 0
      m_PreInfinity: 2
      m_PostInfinity: 2
      m_RotationOrder: 4
    attribute: unknown_1308250156
    path: 
    classID: 212
    script: {fileID: 0}
  - curve:
      serializedVersion: 2
      m_Curve:
      - serializedVersion: 2
        time: 0
        value: 1
        inSlope: 0
        outSlope: 0
        tangentMode: 0
      - serializedVersion: 2
        time: 4
        value: 1
        inSlope: 0
        outSlope: 0
        tangentMode: 0
      m_PreInfinity: 2
      m_PostInfinity: 2
      m_RotationOrder: 4
    attribute: unknown_2113556524
    path: 
    classID: 212
    script: {fileID: 0}
  m_Events:
